First steps with the tidyverse collection
…
Displaying tibbles by simply calling their name is not cumbersome
(contrary to old-school data.frames for which long outputs
are cropped by a not-so-handsome message “[ reached ‘max’ /
getOption(”max.print”) – omitted xxx rows ]” while all the columns,
however many, are displayed):

> households

# A tibble: 527 × 16
   qno   survey  anydairy any_agric   sex   age education hh_experience
   <chr> <chr>      <dbl>     <dbl> <dbl> <dbl>     <dbl>         <dbl>
 1 BUN01 Western        0         1     1    48        12             5
 2 BUN02 Western        0         1     1    28         8             8
 3 BUN03 Western        1         1     1    72         4            42
 4 BUN04 Western        0         1     0    52         0            19
 5 BUN05 Western        1         1     1    48        12            14
 6 BUN06 Western        0         1     1    70         4            35
 7 BUN07 Western        0         1     1    32        12             4
 8 BUN08 Western        1         1     1    38        12            11
 9 BUN09 Western        0         1     1    35        10            10
10 BUN10 Western        0         1     1    40        12            14
# ℹ 517 more rows
# ℹ 8 more variables: primary_activity <chr>, adults <dbl>, fem_totadult <dbl>,
#   depend_ratio <dbl>, off_farm_act <dbl>, offfarm_activity <dbl>,
#   interview_date <dttm>, off_farm_percent <dbl>
…
Filtering, slicing, grouping data: using pipes and the power of
dplyr

Let’s see some of the many features offered by the dplyr
package when it comes to data wrangling.

We can filter some observations, producing a sub-table (still a
tibble) containing only the observations matching logical criteria that
we state. For example, if we want to build a tibble with only the
households with at least 10 years of farming experience:

> households %>% filter(hh_experience >= 10) # 339 observations

# A tibble: 339 × 16
   qno    survey  anydairy any_agric   sex   age education hh_experience
   <chr>  <chr>      <dbl>     <dbl> <dbl> <dbl>     <dbl>         <dbl>
 1 BUN03  Western        1         1     1    72         4            42
 2 BUN04  Western        0         1     0    52         0            19
 3 BUN05  Western        1         1     1    48        12            14
 4 BUN06  Western        0         1     1    70         4            35
 5 BUN08  Western        1         1     1    38        12            11
 6 BUN09  Western        0         1     1    35        10            10
 7 BUN10  Western        0         1     1    40        12            14
 8 BUN103 Western        1         1     0    54         4            38
 9 BUN105 Western        1         1     1    50        12            25
10 BUN106 Western        1         1     1    30         8            10
# ℹ 329 more rows
# ℹ 8 more variables: primary_activity <chr>, adults <dbl>, fem_totadult <dbl>,
#   depend_ratio <dbl>, off_farm_act <dbl>, offfarm_activity <dbl>,
#   interview_date <dttm>, off_farm_percent <dbl>

(please note an advantage of using the pipe versus the equivalent
syntax filter(households, hh_experience >=10): RStudio
autocompletes for you the variable name when you are midway typing
hh_experience and you hit the Tab key)

You can also filter the dataset based on a series of requirements,
all to be fulfilled simultaneously (logical AND). Just make them several
arguments to your call to filter. For instance, to select
the the households with at least 10 years of farming experience
and where the main person is a civil servant:

> households %>% filter(hh_experience >= 10, primary_activity == "Civil servant")

# A tibble: 21 × 16
   qno       survey  anydairy any_agric   sex   age education hh_experience
   <chr>     <chr>      <dbl>     <dbl> <dbl> <dbl>     <dbl>         <dbl>
 1 BUN08     Western        1         1     1    38        12            11
 2 BUN12     Western        1         1     1    54        12            27
 3 BUN138    Western        1         1     1    50        17            17
 4 BUN20     Western        1         1     1    43        17            16
 5 BUN32     Western        1         1     1    43        10            10
 6 BUN37     Western        1         1     1    54        12            28
 7 KIA12089  Kiambu         1         1     1    38        15            11
 8 KIA121113 Kiambu         1         1     1    37        15            10
 9 KIA121116 Kiambu         1         1     0    34        11            15
10 KIA121814 Kiambu         1         1     1    50        11            21
# ℹ 11 more rows
# ℹ 8 more variables: primary_activity <chr>, adults <dbl>, fem_totadult <dbl>,
#   depend_ratio <dbl>, off_farm_act <dbl>, offfarm_activity <dbl>,
#   interview_date <dttm>, off_farm_percent <dbl>
…
